…
``` r
staff_long <- staff %>%
  pivot_longer(cols = -faculty_type, names_to = "year") %>%
  mutate(value = as.numeric(value))
```

``` r
staff_long
```

    ## # A tibble: 55 × 3
    ##    faculty_type              year  value
    ##    <chr>                     <chr> <dbl>
    ##  1 Full-Time Tenured Faculty 1975   29  
    ##  2 Full-Time Tenured Faculty 1989   27.6
    ##  3 Full-Time Tenured Faculty 1993   25  
    ##  4 Full-Time Tenured Faculty 1995   24.8
    ##  5 Full-Time Tenured Faculty 1999   21.8
    ##  6 Full-Time Tenured Faculty 2001   20.3
    ##  7 Full-Time Tenured Faculty 2003   19.3
    ##  8 Full-Time Tenured Faculty 2005   17.8
    ##  9 Full-Time Tenured Faculty 2007   17.2
    ## 10 Full-Time Tenured Faculty 2009   16.8
    ## # ℹ 45 more rows
…
    ## Rows: 216 Columns: 4
    ## ── Column specification ────────────────────────────────────────────────────────
    ## Delimiter: ","
    ## chr (1): country
    ## dbl (3): capture, aquaculture, total
    ## 
    ## ℹ Use `spec()` to retrieve the full column specification for this data.
    ## ℹ Specify the column types or set `show_col_types = FALSE` to quiet this message.

``` r
fisheries
```

    ## # A tibble: 216 × 4
    ##    country             capture aquaculture  total
    ##    <chr>                 <dbl>       <dbl>  <dbl>
    ##  1 Afghanistan            1000        1200   2200
    ##  2 Albania                7886         950   8836
    ##  3 Algeria               95000        1361  96361
    ##  4 American Samoa         3047          20   3067
    ##  5 Andorra                   0           0      0
    ##  6 Angola               486490         655 487145
    ##  7 Antigua and Barbuda    3000          10   3010
    ##  8 Argentina            755226        3673 758899
    ##  9 Armenia                3758       16381  20139
    ## 10 Aruba                   142           0    142
    ## # ℹ 206 more rows

``` r
fishlong <- fisheries %>%
  pivot_longer(cols = c(aquaculture,capture, total), 
               names_to = "Type",
               values_to = "Counts")
```

``` r
fishlong
```

    ## # A tibble: 648 × 3
    ##    country        Type        Counts
    ##    <chr>          <chr>        <dbl>
    ##  1 Afghanistan    aquaculture   1200
    ##  2 Afghanistan    capture       1000
    ##  3 Afghanistan    total         2200
    ##  4 Albania        aquaculture    950
    ##  5 Albania        capture       7886
    ##  6 Albania        total         8836
    ##  7 Algeria        aquaculture   1361
    ##  8 Algeria        capture      95000
    ##  9 Algeria        total        96361
    ## 10 American Samoa aquaculture     20
    ## # ℹ 638 more rows
